[
    {
        "fields": {
            "clubs": [
                1
            ],
            "copy": "<p>The official competition of the <strong>Sydney University Touch Club</strong> - established in 2001.</p>",
            "enabled": true,
            "order": 1,
            "short_title": "USYD",
            "slug": "sydney-university",
            "slug_locked": false,
            "title": "Sydney University"
        },
        "model": "competition.competition",
        "pk": 1
    },
    {
        "fields": {
            "competition": 1,
            "name": "Club Role A"
        },
        "model": "competition.clubrole",
        "pk": 1
    },
    {
        "fields": {
            "competition": 1,
            "name": "Team Role A"
        },
        "model": "competition.teamrole",
        "pk": 1
    },
    {
        "fields": {
            "clubs": [
                1
            ],
            "copy": "<p>Edinburgh's most Elite weekly Touch Football competition.</p>",
            "enabled": true,
            "order": 2,
            "short_title": "ETS",
            "slug": "edinburgh-touch-superleague",
            "slug_locked": false,
            "title": "Edinburgh Touch Superleague"
        },
        "model": "competition.competition",
        "pk": 2
    },
    {
        "fields": {
            "clubs": [],
            "copy": "<p>Spin-off of the Edinburgh Touch Superleague, this competition is no longer running.</p>",
            "enabled": false,
            "order": 3,
            "short_title": "CTS",
            "slug": "cardiff-touch-superleague",
            "slug_locked": false,
            "title": "Cardiff Touch Superleague"
        },
        "model": "competition.competition",
        "pk": 3
    }
]
